c794a338a9c37c184e0e35a9f7cd9b3dd81bd3b3dd2e7124a339edf14a55ba78  ./rpms/MariaDB-10.1.14-centos7-x86_64-connect-engine.rpm
09a33a71f8ad3496df25dc155f96e7f0de8af25e4843242263c58353f7b18fab  ./rpms/MariaDB-10.1.14-centos7-x86_64-client.rpm
abb85bfac9b6f18400bde105665c1ffd1012fb3b4e3780895e4f684b50b71c26  ./rpms/MariaDB-10.1.14-centos7-x86_64-common.rpm
16e1a2d6824529a9adfcd4ab36b2488c4d33ce6a7ec2e9883f1888249364e2ce  ./rpms/MariaDB-10.1.14-centos7-x86_64-compat.rpm
59d875381177e8961acbd8e6c22501b2bd370be6890f95309e1ead1f6553d51f  ./rpms/MariaDB-10.1.14-centos7-x86_64-cracklib-password-check.rpm
e822b9e7ab7749831e939e5f8e241a89d5051121de18cec03fccc9924d882ade  ./rpms/MariaDB-10.1.14-centos7-x86_64-devel.rpm
36fddb38e66a02b9b59dba6bf6a8cbfcd87086c9db429cab760a63c1dddd85e1  ./rpms/MariaDB-10.1.14-centos7-x86_64-gssapi-client.rpm
0ead34e86ea085830714d0099f543eba05768e2e7a0e9082dcf91cb2bd79ec29  ./rpms/MariaDB-10.1.14-centos7-x86_64-oqgraph-engine.rpm
ddbfdbaf13a3727d1b442129edbab2140264eddd6d1872a10c2b548b13cbeb30  ./rpms/MariaDB-10.1.14-centos7-x86_64-server.rpm
fb9c95a3c60fd713e257df5982ed5655bd00051d3d969790327e760ccc3b3caa  ./rpms/MariaDB-10.1.14-centos7-x86_64-shared.rpm
afc78eda8fccc0e07c05b0521a1e4f090cc1c8637bcec0bf3fa6b14907ffe0e6  ./rpms/MariaDB-10.1.14-centos7-x86_64-test.rpm
b77962b64db1c8b1e2a6c1bbf6c96d704814ed94786c3a754ea49da032e9013d  ./rpms/jemalloc-3.6.0-1.el7.x86_64.rpm
476b3fc60bfa0c917217eb82a771727230af2f25ef520738ad9776ef7108936b  ./rpms/jemalloc-devel-3.6.0-1.el7.x86_64.rpm
f2146fa406b93553e51b0dc1713318ba3e36aaae43401138a24e039a9575dcdc  ./rpms/galera-25.3.15-1.rhel7.el7.centos.x86_64.rpm
